Для удобства просмотра ошибок в редакторе Atom необходимо установить 2 плагина - linter, linter-eslint.

/-------------------------------------------------***--------------------------------------------------/

"parser" - babel-eslint - при валидации кода используется babel парсер для ES6 и jsx синтаксиса.

/-------------------------------------------------***--------------------------------------------------/

"extends": ["eslint:recommended", "plugin:react/recommended"] - включены по умолчанию расширения с правилами, которые рекомендует сообщество eslint и react.

/-------------------------------------------------***--------------------------------------------------/

"env" - среда для разработки - брузер и сервер Node.js.

/-------------------------------------------------***--------------------------------------------------/

"parserOptions" - включена поддержка jsx-синтаксиса.

/-------------------------------------------------***--------------------------------------------------/

"no-console" - Можно использовать методы объекта console.

/-------------------------------------------------***--------------------------------------------------/

"block-scoped-var" - использовать переменны объявленные в блоке, только в пределах этого блока.

/-------------------------------------------------***--------------------------------------------------/

"no-eval" - нельзя использовать функцию eval.

/-------------------------------------------------***--------------------------------------------------/

"array-bracket-spacing" - нельзя использовать пробелы при объявлении значений массива:
  // плохо
  var arr = [ 'hello', 'world!' ];

  // хорошо
  var arr = ['hello', 'world!'];
  var arr = [
    'hello',
    'world!'
  ];

/-------------------------------------------------***--------------------------------------------------/

"block-spacing" - нужно использовать проблемы при использовании блоков кода в 1 строку:
  // плохо
  if (x > y) {return z;}

  // хорошо
  if (x > y) { return z; }

/-------------------------------------------------***--------------------------------------------------/

"brace-style" - нужно использовать пробелы и "правильные" переносы строк при составных условиях:
  // плохо
  if (x > y) {
    return z;
  }else{
    return y;
  }

  if (x > y) {
    return z;
  }
  else {
    return y;
  }

  // хорошо
  if (x > y) {
    return z;
  } else {
    return y;
  }

  if (x > y) return y;

/-------------------------------------------------***--------------------------------------------------/

"comma-dangle" - нужно писать запятую сразу после объявления переменной или методов объекта, или значений массива:
  // плохо
  var x = 'hello'
    , y = 'world';

  var obj = {
    vers: '1'
  , myFunc: function() { ... }
  };

  // хорошо
  var x = 'hello',
      y = 'world';

  var obj = {
    vers: '1',
    myFunc: function() { ... }
  };

/-------------------------------------------------***--------------------------------------------------/

"comma-spacing" - нужно писать запятую сразу после объявления переменной или методов объекта, или значений массива, перед запятой нельзя ставить пробелы::
  // плохо
  var x = 'hello' ,var y = 'world';

  // хорошо
  var x = 'hello', var y = 'world';

/-------------------------------------------------***--------------------------------------------------/

"comma-style" - нужно писать запятую сразу после значения переменной, методов, значений массива:
  // плохо
  var foo = ["apples"
           , "oranges"];

  // хорошо
  var foo = ["apples",
             "oranges"];
  var foo = [
    "apples",
    "oranges"
  ];

/-------------------------------------------------***--------------------------------------------------/

"computed-property-spacing" - нельзя использовать пробелы в вычесленных свойствах:
  // плохо
  obj[ 'red'];
  var foo = {
    [x ]: function() { ... }
  };

  // хорошо
  obj['red'];
  var foo = {
    [x]: function() { ... }
  };

/-------------------------------------------------***--------------------------------------------------/

"eol-last" - всегда нужно оставлять пустую строку в конце файлов.

/-------------------------------------------------***--------------------------------------------------/

"func-call-spacing", "space-before-function-paren" - между названием функции и первой круглой скобкой нельзя ставить пробел:
  // плохо
  function foo () { ... }

  // хорошо
  function foo() { ... }
  (function() {
    ...
  })();
  var foo = function() { ... }

/-------------------------------------------------***--------------------------------------------------/

"indent" - в качестве табов использется 2 пробела, при объявлении переменных через запятую - для var и let можно использовать 4 пробела, для const 6 пробелов:
  // пример
  var x = 'hello',
      y = 'world';

  let x = 'hello',
      y = 'world';

  const x = 'hello',
        y = 'world';

/-------------------------------------------------***--------------------------------------------------/

"key-spacing" - нужно использовать правильное количество пробелов при объявлении свойств объекта:
  // плохо
  var foo = {
    'first' : function() { ... }
  };

  // хорошо
  var foo = {
    'first': function() { ... }
  };

/-------------------------------------------------***--------------------------------------------------/

"keyword-spacing" - нужно всегда использовать пробел после ключевых слов:
  // плохо
  if(x > y) { ... }

  // хорошо
  if (x > y) { ... }

/-------------------------------------------------***--------------------------------------------------/

"max-len" - максимальная длинна строки 120 символов (это длинна чистого кода, то есть без учета комментариев), так же длинну строки можно превышать когда используется какая-либо текстовая строка, ES6 строковый шаблон или длинный URL-адресс.

/-------------------------------------------------***--------------------------------------------------/

"newline-after-var" - всегда нужно оставлять пустую строку после объявления переменных:
  // плохо
  var x = 'hello';
  var y = 'world';
  console.log(x, y);

  // хорошо
  var x = 'hello';
  var y = 'world';

  console.log(x, y);

/-------------------------------------------------***--------------------------------------------------/

"newline-before-return" - нужно оставлять вызов return пустой строкой от основого кода:
  // плохо
  function foo(bar) {
    if (!bar) {
        return;
    }
    return bar;
  }

  // хорошо
  function foo(bar) {
    if (!bar) {
      return;
    }

    return bar;
  }

  function foo(bar) {
    return bar;
  }

  if (x > y) return z;

/-------------------------------------------------***--------------------------------------------------/

"no-multiple-empty-lines" - нельзя делать более 2 пустых строк подряд.

/-------------------------------------------------***--------------------------------------------------/

"no-new-object" - при создании новых объектов нужно использовать литерал объекта, а не конструктор объекта:
  // плохо
  var obj = new Object();

  // хорошо
  var obj = {};

/-------------------------------------------------***--------------------------------------------------/

"object-property-newline" - при объявлении свойств и методов, если их более 1-го, то каждое свойство и метод нужно писать с новой строки:
  // плохо
  var obj = { vers: '1', getVal: function() { return this.val; } };

  // хорошо
  var obj = {
    vers: '1',
    getVal: function() {
      return this.val;
    }
  };

/-------------------------------------------------***--------------------------------------------------/

"arrow-spacing" - при использовании стрелочных функций всегда используются проблемы до и после "стрелки" (=>):
  // плохо
  var foo = ()=>{
    return true;
  };

  // хорошо
  var foor = () => {
    return true;
  };

/-------------------------------------------------***--------------------------------------------------/

"quotes" - в js коде всегда используются одинарные кавычки:
  // пример
  var x = 'hello';
  var y = 'hello "world"';
  var z = `Hello ${x}`;

/-------------------------------------------------***--------------------------------------------------/

"no-duplicate-imports" - при использовании ES6 import при импортировании нескольких значений из одной библиотеки, нужно писать значения в одном импорте через запятую:
  // плохо
  import { hello } from 'hello';
  import { world } from 'hello';

  // хорошо
  import { hello, world } from 'hello';

/-------------------------------------------------***--------------------------------------------------/

"rest-spread-spacing" - при использовании spread-оператора нельзя отделять пробелом троеточие от названия:
  // плохо
  var x = ['hello', ... args];

  // хорошо
  var x = ['hello', ...args];

/-------------------------------------------------***--------------------------------------------------/

"prefer-template" - при использовании ES6 синтаксиса при манипуляциях со строками нужно использовать ES6 строковые шаблоны:
  // плохо
  var x = 'hello' + foo * 4;

  // хорошо
  var x = `hello ${foo * 4}`;

/-------------------------------------------------***--------------------------------------------------/

"yield-star-spacing" - при использовании ES6 генераторов нужно писать * сразу после ключевого слова function:
  // плохо
  function *gen(x) {
    yield 1;
  }

  // хорошо
  function* gen(x) {
    yield 1;
  }

/-------------------------------------------------***--------------------------------------------------/

"no-unused-vars" - все объявленные переменные должны быть использованы в коде, нельзя просто так объявлять переменные и не использовать их. (это правило поумочанию включенно в eslint:recommended).

/-/-------------------------------------------------***--------------------------------------------------/